Franchise,Alternate Names,Debut,Final,1958,1959,1960,1961,1962,1963,1964,1965,1966,1967,1968,1969,1970,1971,1972,1973,1974,1975,1976,1977,1978,1979,1980,1981,1982,1983,1984,1985,1986,1987,1988,1989,1990,1991,1992,1993,1994,1995,1996,1997,1998,1999,2000,2001,2002,2003,2004,2005,2006,2007,2008,2009,2010,2011,2012,2013,2014,2015,2016,2017,2018,2019,2020,Franchise
BC Lions,,1958,,,2,,,,5,8,,,,,2,,,,2,2,,,3,,2,,3,,5,3,8,3,3,5,,,2,,2,8,2,,2,2,3,8,2,2,2,5,3,8,3,3,3,2,8,3,2,2,2,3,,2,,,BC Lions
Birmingham Barracudas,,1995,1995,,,,,,,,,,,,,,,,,,,,,,,,,,,,,,,,,,,,,,2,,,,,,,,,,,,,,,,,,,,,,,,,,Birmingham Barracudas
Calgary Stampeders,,1958,,,,2,3,3,2,3,3,,3,5,3,5,8,,,,,,,3,3,2,,2,,,,2,2,,2,3,5,8,3,3,5,3,2,8,5,3,8,,,,2,2,2,8,3,3,2,5,3,8,3,5,5,8,2,,Calgary Stampeders
Edmonton Elks,"Edmonton Eskimos",1958,,3,3,5,2,,,,,2,2,2,,2,,2,5,5,8,3,5,8,8,8,8,8,2,2,2,5,8,3,3,5,3,3,8,2,3,5,3,3,2,2,3,5,8,2,8,,,3,2,,3,2,,3,8,3,3,,3,,Edmonton Elks
Hamilton Tiger-Cats,,1958,,5,5,,5,5,8,5,8,3,8,2,2,3,3,8,,2,2,3,,2,2,5,3,2,3,5,5,8,2,2,5,,,3,3,,2,2,,5,8,2,3,,,2,,,,,2,2,3,,5,5,3,2,,3,5,,Hamilton Tiger-Cats
Las Vegas Posse,,1994,1994,,,,,,,,,,,,,,,,,,,,,,,,,,,,,,,,,,,,,,,,,,,,,,,,,,,,,,,,,,,,,,,,Las Vegas Posse
Memphis Mad Dogs,,1995,1995,,,,,,,,,,,,,,,,,,,,,,,,,,,,,,,,,,,,,,,,,,,,,,,,,,,,,,,,,,,,,,,,Memphis Mad Dogs
Montreal Allouettes,"Montreal Concordes, Baltimore Stallions",1958,,2,2,2,,3,2,2,2,2,,,,8,,2,3,8,5,2,8,5,5,3,2,,,2,3,,,,,,,,,5,8,3,3,3,3,5,2,8,5,3,5,5,2,5,8,8,2,3,2,3,,,,,2,,Montreal Allouettes
Ottawa Redblacks,"Ottawa Rough Riders, Ottawa Renegades",1958,,3,3,8,2,2,3,3,3,5,3,8,8,,2,3,8,3,3,8,3,3,3,2,5,3,2,,2,,,,,2,2,2,2,2,,,,,,,,,,,,,,,,,,,,,5,8,2,5,,,Ottawa Redblacks
Sacramento Gold Miners,San Antonio Texans,1993,1995,,,,,,,,,,,,,,,,,,,,,,,,,,,,,,,,,,,,,,3,,,,,,,,,,,,,,,,,,,,,,,,,,Sacramento Gold Miners
Saskatchewan Roughriders,,1958,,2,,,,2,3,2,2,8,5,3,5,3,3,5,3,3,3,5,,,,,,,,,,,,2,8,2,,2,2,2,,,5,,,,,2,3,3,2,3,8,2,5,5,,2,8,2,,,3,2,3,,Saskatchewan Roughriders
Shreveport Pirates,,1994,1995,,,,,,,,,,,,,,,,,,,,,,,,,,,,,,,,,,,,,,,,,,,,,,,,,,,,,,,,,,,,,,,,Shreveport Pirates
Toronto Argonauts,,1958,,,,3,3,,,,,,2,3,3,2,5,,2,,,,2,,,,,5,8,3,,3,5,3,2,3,8,,,2,,8,8,2,2,,,3,3,8,3,3,3,,,3,,8,3,,2,,8,,,,Toronto Argonauts
Winnipeg Blue Bombers,,1958,,8,8,3,8,8,,,5,3,,,,,2,3,,,2,2,2,2,,3,2,3,3,8,3,2,3,8,3,8,3,5,5,3,2,2,,,,3,5,3,2,,,2,5,2,,,5,,,,,2,2,3,8,,Winnipeg Blue Bombers
