Franchise,Alternate Names,Debut,Final,1968,1969,1970,1971,1972,1973,1974,1975,1976,1977,1978,1979,1980,1981,1982,1983,1984,1985,1986,1987,1988,1989,1990,1991,1992,1993,1995,1996,1997,1998,1999,2000,2001,2002,2003,2004,2005,2006,2007,2008,2009,2010,2011,2012,2013,2014,2015,2016,2017,2018,2019,2020,2021,2022,Franchise
Anaheim Ducks,,1994,,,,,,,,,,,,,,,,,,,,,,,,,,,,,,,2,,1,,,,5,,3,8,1,2,,1,,1,2,3,1,3,1,,,,,Anaheim Ducks
Boston Bruins,,1968,,2,3,8,2,8,2,5,1,3,5,5,3,2,1,2,3,1,1,1,1,5,2,5,3,3,1,2,1,1,,1,2,,,1,1,1,,,1,,2,8,1,5,2,,,1,2,5,2,2,1,Boston Bruins
Buffalo Sabres,,1971,,,,,,,2,,5,2,2,2,1,3,2,1,2,1,1,,,1,1,1,1,1,2,1,1,,2,3,5,1,2,,,,3,3,,,1,1,,,,,,,,,,,,Buffalo Sabres
Calgary Flames,Atlanta Flames,1973,,,,,,,,2,,1,1,1,1,1,3,1,2,2,1,5,1,1,8,1,1,,1,1,1,1,,,,,,,,5,1,1,1,1,,,,,,2,,1,,1,1,,2,Calgary Flames
Carolina Hurricanes,"New England Whalers, Hartford Whalers",1980,,,,,,,,,,,,,,1,,,,,,2,1,1,1,1,1,1,,,,,,,1,,1,5,,,8,,,3,,,,,,,,,,3,1,2,2,Carolina Hurricanes
Chicago Blackhawks,,1968,,3,,3,5,3,5,3,2,2,1,2,2,2,1,3,3,1,3,1,1,3,3,3,1,5,1,1,3,2,1,,,,,1,,,,,,3,8,1,1,8,3,8,1,1,,,1,,,Chicago Blackhawks
Colorado Avalanche,Quebec Nordiques,1980,,,,,,,,,,,,,,,1,3,1,2,3,1,2,,,,,,1,,1,8,3,1,3,3,8,3,1,2,2,,2,,1,,,,1,,,,1,2,2,2,8,Colorado Avalanche
Columbus Blue Jackets,,2001,,,,,,,,,,,,,,,,,,,,,,,,,,,,,,,,,,,,,,,,,,1,,,,,1,,,1,1,2,1,,,Columbus Blue Jackets
Dallas Stars,Minnesota North Stars,1968,,3,,2,3,2,2,,,,1,,,3,5,1,2,3,2,1,,1,1,1,5,1,,2,1,,1,3,8,5,2,,2,1,1,1,3,,,,,,1,,2,,,2,5,,1,Dallas Stars
Detroit Red Wings,,1968,,,,2,,,,,,,,2,,,,,,1,1,,3,,1,,1,2,1,1,5,3,8,8,2,2,1,8,1,2,1,3,8,5,2,2,1,2,1,1,1,,,,,,,Detroit Red Wings
Edmonton Oilers,,1980,,,,,,,,,,,,,,1,2,1,5,8,8,2,8,8,1,8,3,3,,,,,2,2,1,1,1,,1,,5,,,,,,,,,,,2,,,1,1,3,Edmonton Oilers
Florida Panthers,,1994,,,,,,,,,,,,,,,,,,,,,,,,,,,,,,5,1,,,1,,,,,,,,,,,1,,,,1,,,,1,1,2,Florida Panthers
Los Angeles Kings,,1968,,2,3,,,,,2,1,2,2,1,1,1,1,2,,,1,,1,2,2,2,2,1,5,,,,,1,,1,2,1,,,,,,,1,1,8,3,8,,1,,1,,,,1,Los Angeles Kings
Minnesota Wild,,2001,,,,,,,,,,,,,,,,,,,,,,,,,,,,,,,,,,,,,3,,,1,1,,,,,,2,2,1,1,1,,1,1,1,Minnesota Wild
Montreal Canadiens,,1968,,8,8,,8,2,8,2,3,8,8,8,8,2,1,1,1,3,2,8,3,2,5,2,2,2,8,1,,1,1,2,,,,2,,2,1,,2,1,3,1,,1,3,2,,1,,,1,5,,Montreal Canadiens
Nashville Predators,,1999,,,,,,,,,,,,,,,,,,,,,,,,,,,,,,,,,,,,,,1,1,1,1,,1,2,2,1,,1,2,5,2,1,1,1,1,Nashville Predators
New Jersey Devils,"Kansas City Scouts, Colorado Rockies",1975,,,,,,,,,,,,1,,,,,,,,,,1,,1,1,1,1,3,8,,2,1,1,8,5,1,8,1,2,2,1,1,1,,5,,,,,,1,,,,,New Jersey Devils
New York Islanders,,1973,,,,,,,,,3,3,3,2,3,8,8,8,8,5,2,1,2,1,,1,,,3,1,,,,,,,,1,1,1,,1,,,,,,1,,1,2,,,2,3,3,,New York Islanders
New York Rangers,,1968,,2,2,2,3,5,3,3,1,,,1,5,2,3,2,2,1,1,3,1,2,1,2,1,2,,8,2,2,3,,,,,,,,1,2,2,1,,1,3,2,5,3,1,2,,,1,,3,New York Rangers
Ottawa Senators,,1993,,,,,,,,,,,,,,,,,,,,,,,,,,,,,,,1,2,1,1,1,2,3,1,2,5,1,,1,,1,2,,1,,3,,,,,,Ottawa Senators
Philadelphia Flyers,,1968,,3,2,,2,,3,8,8,5,3,3,2,5,2,1,1,1,5,1,5,,3,,,,,,3,2,5,1,1,3,1,1,2,3,1,,3,1,5,2,2,,1,,1,,1,,2,,,Philadelphia Flyers
Phoenix Coyotes,Winnipeg Jets,1980,,,,,,,,,,,,,,,,1,1,1,2,1,2,1,,1,,1,1,,,1,1,1,1,1,,1,,,,,,,1,1,3,,,,,,,,1,,,Phoenix Coyotes
Pittsburgh Penguins,,1968,,,,3,,2,,,2,1,1,,2,1,1,1,,,,,,,2,,8,8,2,1,2,3,1,1,2,2,3,,,,,1,5,8,2,1,1,3,2,1,8,8,2,1,1,1,1,Pittsburgh Penguins
San Jose Sharks,,1992,,,,,,,,,,,,,,,,,,,,,,,,,,,,2,2,,,1,1,2,1,2,,3,2,2,2,1,3,3,1,2,1,,5,1,2,3,,,,San Jose Sharks
St. Louis Blues,,1968,,5,5,5,2,3,2,,1,1,2,,,1,2,2,1,2,1,3,1,2,2,2,2,1,2,1,1,2,1,2,2,1,3,2,1,1,,,,1,,,2,1,1,1,3,2,,8,1,1,2,St. Louis Blues
Tampa Bay Lightning,,1993,,,,,,,,,,,,,,,,,,,,,,,,,,,,,,1,,,,,,,2,8,1,1,,1,,3,,,1,5,3,,3,1,8,8,5,Tampa Bay Lightning
Toronto Maple Leafs,,1968,,,2,,2,2,,2,2,2,2,3,2,1,1,,1,,,2,2,1,,1,,,3,3,1,1,,,3,2,2,3,1,2,,,,,,,,1,,,,1,1,1,1,1,1,Toronto Maple Leafs
Vancouver Canucks,,1971,,,,,,,,,2,1,,,1,1,1,5,1,1,,1,,,1,,1,2,2,5,2,1,,,,,1,1,2,1,,2,,2,2,5,1,1,,1,,,,,2,,,Vancouver Canucks
Vegas Golden Knights,,2018,,,,,,,,,,,,,,,,,,,,,,,,,,,,,,,,,,,,,,,,,,,,,,,,,,,5,1,3,3,,Vegas Golden Knights
Washington Capitals,,1975,,,,,,,,,,,,,,,,,1,2,1,2,1,3,1,3,2,1,1,2,1,1,,5,,1,1,,1,,,,1,2,1,2,2,1,,2,2,2,8,1,1,1,1,Washington Capitals
Winnipeg Jets,Atlanta Thrashers,2000,,,,,,,,,,,,,,,,,,,,,,,,,,,,,,,,,,,,,,,,1,,,,,,,,1,,,3,1,1,2,,Winnipeg Jets
