Franchise,Alternate Names,Debut,Final,1996,1997,1998,1999,2000,2001,2002,2003,2004,2005,2006,2007,2008,2009,2010,2011,2012,2013,2014,2015,2016,2017,2018,2019,2020,2021,2022,Franchise
Atlanta United FC,,2017,,,,,,,,,,,,,,,,,,,,,,,1,8,3,,1,,Atlanta United FC
Austin FC,,2021,,,,,,,,,,,,,,,,,,,,,,,,,,,,3,Austin FC
CF Montreal,Montreal Impact,2012,,,,,,,,,,,,,,,,,,,1,,2,3,,,,,,2,CF Montreal
Chicago Fire,,1998,,,,8,2,5,3,2,5,,3,2,3,3,3,,,1,,,,,1,,,,,,Chicago Fire
Club Deportivo Chivas USA,,2005,2014,,,,,,,,,,,2,2,2,2,,,,,,,,,,,,,,Club Deportivo Chivas USA
Colorado Rapids,,1996,,,5,2,2,2,,3,2,2,3,3,,,,8,2,,1,,,3,,,,1,2,,Colorado Rapids
Columbus Crew,,1996,,2,3,3,3,,2,3,,2,,,,8,2,2,1,,,2,5,,3,2,,8,,,Columbus Crew
D. C. United,,1996,,8,8,5,8,,,,2,8,2,3,2,,,,,3,,2,2,1,,1,1,,,,D. C. United
FC Cincinnati,,2019,,,,,,,,,,,,,,,,,,,,,,,,,,,,2,FC Cincinnati
FC Dallas,Dallas Burn,1996,,2,3,2,3,2,2,2,,,2,2,2,,,5,1,,,2,3,2,,1,1,2,,2,FC Dallas
Houston Dynamo,,2006,,,,,,,,,,,,8,8,2,3,,5,5,3,,,,3,,,,,,Houston Dynamo
Inter Miami CF,,2020,,,,,,,,,,,,,,,,,,,,,,,,,,,,1,Inter Miami CF
Los Angeles FC,,2018,,,,,,,,,,,,,,,,,,,,,,,,1,3,1,,8,Los Angeles FC
Los Angeles Galaxy,,1996,,5,2,3,5,3,5,8,2,3,8,,,,5,3,8,8,,8,1,2,,,2,,,2,Los Angeles Galaxy
Miami Fusion,,1998,2001,,,2,2,,3,,,,,,,,,,,,,,,,,,,,,,Miami Fusion
Minnesota United FC,,2017,,,,,,,,,,,,,,,,,,,,,,,,,1,3,1,1,Minnesota United FC
Nashville SC,,2020,,,,,,,,,,,,,,,,,,,,,,,,,,2,2,1,Nashville SC
New England Revolution,,1996,,,2,,,2,,5,3,3,5,5,5,2,2,,,,2,5,1,,,,1,3,2,,New England Revolution
New York City Football Club,,2015,,,,,,,,,,,,,,,,,,,,,,2,2,2,2,1,8,3,New York City FC
New York Red Bulls,New York/New Jersey MetroStars,1996,,2,,2,,3,2,,2,2,2,2,2,5,,2,2,2,2,3,3,2,2,3,1,1,1,1,New York Red Bulls
Orlando City SC,,2015,,,,,,,,,,,,,,,,,,,,,,,,,,2,1,1,Orlando City SC
Philadelphia Union,,2011,,,,,,,,,,,,,,,,,2,,,,,1,,1,2,1,3,5,Philadelphia Union
Portland Timbers,,2011,,,,,,,,,,,,,,,,,,,3,,8,,2,5,1,1,5,,Portland Timbers
Real Salt Lake,,2005,,,,,,,,,,,,,,3,8,2,3,2,5,2,,1,,2,2,,3,1,Real Salt Lake
San Jose Earthquakes,San Jose Clash,1996,,2,,,,,8,2,8,2,2,,,,,3,,2,,,,,1,,,1,,,San Jose Earthquakes
Seattle Sounders,,2009,,,,,,,,,,,,,,,2,2,2,3,,3,2,8,5,2,8,5,1,,Seattle Sounders
Sporting KC,"Kansas City Wiz, Kansas City Wizards",1996,,3,2,,,8,2,2,3,5,,,3,2,,,3,2,8,1,1,1,1,3,,2,2,,Sporting KC
Tampa Bay Mutiny,,1996,2001,3,2,,2,2,,,,,,,,,,,,,,,,,,,,,,,Tampa Bay Mutiny
Toronto FC,,2007,,,,,,,,,,,,,,,,,,,,,1,5,8,,5,1,,,Toronto FC
Vancouver Whitecaps FC,,2011,,,,,,,,,,,,,,,,,,1,,1,2,,2,,,,1,,Vancouver Whitecaps FC
